analysis
…
analysis

Gabe Cederberg

4/2/2020

First analysis

## # A tibble: 116 x 39
##    state county fips  trump16 clinton16 otherpres16 romney12 obama12 otherpres12
##    <chr> <chr>  <chr>   <dbl>     <dbl>       <dbl>    <dbl>   <dbl>       <dbl>
##  1 Miss Adair  29001    6030      3500         696     5651    4219         256
##  2 Miss Andrew 29003    6665      2045         430     5457    2649         200
##  3 Miss Atchi 29005    2060       541         123     1902     756          51
##  4 Miss Audra 29007    6981      2570         510     6186    3539         227
##  5 Miss Barry  29009   11428      2710         467     9832    3667         307
##  6 Miss Barton 29011    4959       795         185     4418    1230          98
##  7 Miss Bates  29013    6001      1618         404     5020    2557         194
##  8 Miss Benton 29015    7213      2025          74     6069    2925         163
##  9 Miss Bolli 29017    4827       705         144     4095    1213         148
## 10 Miss Boone  29019   36200     41125        6543    37404   39847        2171
## #  with 106 more rows, and 30 more variables: demsen16 <dbl>, repsen16 <dbl>,
## #   othersen16 <dbl>, demhouse16 <dbl>, rephouse16 <dbl>, otherhouse16 <dbl>,
## #   demgov16 <dbl>, repgov16 <dbl>, othergov16 <dbl>, repgov14 <dbl>,
## #   demgov14 <dbl>, othergov14 <dbl>, total_population <dbl>, cvap <dbl>,
## #   white_pct <dbl>, black_pct <dbl>, hispanic_pct <dbl>, nonwhite_pct <dbl>,
## #   foreignborn_pct <dbl>, female_pct <dbl>, age29andunder_pct <dbl>,
## #   age65andolder_pct <dbl>, median_hh_inc <dbl>, clf_unemploy_pct <dbl>,
## #   lesshs_pct <dbl>, lesscollege_pct <dbl>, lesshs_whites_pct <dbl>,
## #   lesscollege_whites_pct <dbl>, rural_pct <dbl>, ruralurban_cc <dbl>
…
